{
    "KPlugin": {
        "Authors": [
            {
                "Email": "aix.m@outlook.com",
                "Name": "Aditya Mehra",
                "Name[ar]": "أديتيا ميهرا",
                "Name[az]": "Aditya Mehra",
                "Name[bg]": "Aditya Mehra",
                "Name[ca@valencia]": "Aditya Mehra",
                "Name[ca]": "Aditya Mehra",
                "Name[cs]": "Aditya Mehra",
                "Name[da]": "Aditya Mehra",
                "Name[de]": "Aditya Mehra",
                "Name[el]": "Aditya Mehra",
                "Name[en_GB]": "Aditya Mehra",
                "Name[eo]": "Aditya Mehra",
                "Name[es]": "Aditya Mehra",
                "Name[et]": "Aditya Mehra",
                "Name[eu]": "Aditya Mehra",
                "Name[fi]": "Aditya Mehra",
                "Name[fr]": "Aditya Mehra",
                "Name[gl]": "Aditya Mehra",
                "Name[he]": "אדיטיה מהרה",
                "Name[hu]": "Aditya Mehra",
                "Name[ia]": "Aditya Mehra",
                "Name[id]": "Aditya Mehra",
                "Name[ie]": "Aditya Mehra",
                "Name[is]": "Aditya Mehra",
                "Name[it]": "Aditya Mehra",
                "Name[ja]": "Aditya Mehra",
                "Name[ka]": "Aditya Mehra",
                "Name[ko]": "Aditya Mehra",
                "Name[lt]": "Aditya Mehra",
                "Name[nl]": "Aditya Mehra",
                "Name[nn]": "Aditya Mehra",
                "Name[pl]": "Aditya Mehra",
                "Name[pt]": "Aditya Mehra",
                "Name[pt_BR]": "Aditya Mehra",
                "Name[ro]": "Aditya Mehra",
                "Name[ru]": "Aditya Mehra",
                "Name[sk]": "Aditya Mehra",
                "Name[sl]": "Aditya Mehra",
                "Name[sv]": "Aditya Mehra",
                "Name[tr]": "Aditya Mehra",
                "Name[uk]": "Aditya Mehra",
                "Name[x-test]": "xxAditya Mehraxx",
                "Name[zh_CN]": "Aditya Mehra",
                "Name[zh_TW]": "Aditya Mehra"
            }
        ],
        "Description": "Send voice commands to your TV running Plasma Bigscreen",
        "Description[ar]": "أرسل أوامر صوتية إلى تلفازك الذي يشغل بلازما الشاشة الكبيرة",
        "Description[az]": "Plasma Böyük ekranın işlək olduğu televizora səs əmri göndər",
        "Description[bg]": "Изпращане на гласови команди към телевизора с Bigscreen на Plasma",
        "Description[ca@valencia]": "Envieu ordres de veu al televisor executant Plasma Bigscreen",
        "Description[ca]": "Envieu ordres de veu al televisor executant el Plasma Bigscreen",
        "Description[cs]": "Posílejte hlasové příkazy TV, na které běží Plasma Bigscreen",
        "Description[de]": "Sendet Sprachbefehle zum Steuern des Fernsehers über Plasma Bigscreen",
        "Description[en_GB]": "Send voice commands to your TV running Plasma Bigscreen",
        "Description[eo]": "Sendi voĉkomandojn al via televidilo kun Plasma Bigscreen",
        "Description[es]": "Envie órdenes de voz a su televisor ejecutando Plasma Bigscreen",
        "Description[eu]": "Bidali ahots-aginduak Plasma Bigscreen darabilen zure TBari",
        "Description[fi]": "Lähetä Plasma Bigscreen -TV:lle äänikomentoja",
        "Description[fr]": "Envoyer des commandes vocales vers votre télévision fonctionnant avec Plasma Bigscreen.",
        "Description[gl]": "Enviar ordes de voz a un televisor que use Plasma Bigscreen.",
        "Description[he]": "שליחת פקודות קוליות לטלוויזיה שלך שמפעילה Bigscreen פלזמה",
        "Description[ia]": "Invia commandos de voce a tu TV executante  Bigscreen de Plasma",
        "Description[it]": "Invia comandi vocali alla tua TV con Plasma Bigscreen",
        "Description[ja]": "Plasma Bigscreen を実行している TV に音声コマンドを送信",
        "Description[ka]": "გაუგზავნეთ თქვენს TV-ზე გაშვებულ Plasma Bigscreen-ს ხმოვანი ბრძანებები",
        "Description[ko]": "Plasma 큰 화면을 실행 중인 TV에 음성 명령 보내기",
        "Description[nl]": "Stemcommando s naar uw TV zenden bij actief Plasma Bigscreen",
        "Description[nn]": "Send stemmekommandoar til fjernsyn som køyrer Plasma Bigscreen",
        "Description[pl]": "Wysyłaj polecenie głosowe do swojego TV, używając Dużego Ekranu Plazmy",
        "Description[pt]": "Enviar comandos de voz para a sua TV com o Plasma para Ecrãs Grandes",
        "Description[pt_BR]": "Envie comandos de voz para sua TV rodando Plasma Bigscreen",
        "Description[ru]": "Передача голосовых команд на телевизор под управлением Plasma Bigscreen",
        "Description[sl]": "Pošljite glasovne ukaze vašemu televizorju, kjer teče Plasma Bigscreen",
        "Description[sv]": "Skicka röstkommandon till en tv-apparat som kör Plasma storbildsskärm",
        "Description[tr]": "Plasma Büyük ekran kullanan televizyonlara ses komutları gönder",
        "Description[uk]": "Надсилання голосових команд вашому телевізору, де запущено Plasma Bigscreen",
        "Description[x-test]": "xxSend voice commands to your TV running Plasma Bigscreenxx",
        "Description[zh_CN]": "发送语音命令给运行 Plasma Bigscreen 的电视机",
        "Description[zh_TW]": "傳送人聲指令到您執行 Plasma 大螢幕的電視",
        "EnabledByDefault": true,
        "Icon": "tvtrusted",
        "License": "GPL",
        "Name": "Bigscreen voice control",
        "Name[ar]": "التحكم الصوتي للشاشة الكبيرة",
        "Name[az]": "Böyük Ekran səs ilə idarəetmə",
        "Name[bg]": "Bigscreen управление на гласа",
        "Name[ca@valencia]": "Control de veu de la Bigscreen",
        "Name[ca]": "Control de veu de la Bigscreen",
        "Name[cs]": "Hlasové ovládání pro Bigscreen",
        "Name[de]": "Bigscreen-Spracheingabe",
        "Name[en_GB]": "Bigscreen voice control",
        "Name[eo]": "Grandekrana voĉa kontrolo",
        "Name[es]": "Control de voz de Bigscreen",
        "Name[eu]": "«Bigscreen»en ahots agintea",
        "Name[fi]": "Bigscreen-äänen hallinta",
        "Name[fr]": "Contrôle vocal pour Bigscreen",
        "Name[gl]": "Control de voz de Bigscreen",
        "Name[he]": "שליטה קולית ב־Bigscreen",
        "Name[ia]": "Controlo de voce de BigScreen",
        "Name[it]": "Controllo vocale di Bigscreen",
        "Name[ja]": "Bigscreen ボイスコントロール",
        "Name[ka]": "Bigscreen-ის ხმოვანი კონტროლი",
        "Name[ko]": "큰 화면 음성 제어",
        "Name[nl]": "Bigscreen stembesturing",
        "Name[nn]": "Bigscreen-stemmestyring",
        "Name[pl]": "Sterowanie głosowe Dużym Ekranem",
        "Name[pt]": "Comando por voz do Ecrã Grande",
        "Name[pt_BR]": "Plugin para controle de voz do Bigscreen",
        "Name[ru]": "Голосовое управление Bigscreen",
        "Name[sl]": "Glasovni nadzor velikega zaslona",
        "Name[sv]": "Röstkontroll av storskärm",
        "Name[tr]": "Büyük Ekran sesle denetim",
        "Name[uk]": "Голосове керування Bigscreen",
        "Name[x-test]": "xxBigscreen voice controlxx",
        "Name[zh_CN]": "Bigscreen 语音控制",
        "Name[zh_TW]": "大螢幕人聲控制"
    },
    "X-KdeConnect-OutgoingPacketType": [
        "kdeconnect.mousepad.request",
        "kdeconnect.bigscreen.stt"
    ],
    "X-KdeConnect-SupportedDeviceTypes": [
        "tv"
    ],
    "X-KdeConnect-SupportedPacketType": [
        "kdeconnect.bigscreen.stt"
    ]
}
