{
    "KPlugin": {
        "Authors": [
            {
                "Email": "albertvaka@gmail.com",
                "Name": "Albert Vaca Cintora",
                "Name[ar]": "ألبرت فاكا سينتورا",
                "Name[az]": "Albert Vaca Cintora",
                "Name[bg]": "Albert Vaca Cintora",
                "Name[ca@valencia]": "Albert Vaca Cintora",
                "Name[ca]": "Albert Vaca Cintora",
                "Name[cs]": "Albert Vaca Cintora",
                "Name[de]": "Albert Vaca Cintora",
                "Name[en_GB]": "Albert Vaca Cintora",
                "Name[eo]": "Albert Vaca Cintora",
                "Name[es]": "Albert Vaca Cintora",
                "Name[eu]": "Albert Vaca Cintora",
                "Name[fi]": "Albert Vaca Cintora",
                "Name[fr]": "Albert Vaca Cintora",
                "Name[gl]": "Albert Vaca Cintora",
                "Name[he]": "אלברט ואקה סינטורה",
                "Name[ia]": "Albert Vaca Cintora",
                "Name[it]": "Albert Vaca Cintora",
                "Name[ja]": "Albert Vaca Cintora",
                "Name[ka]": "Albert Vaca Cintora",
                "Name[ko]": "Albert Vaca Cintora",
                "Name[nl]": "Albert Vaca Cintora",
                "Name[nn]": "Albert Vaca Cintora",
                "Name[pl]": "Albert Vaca Cintora",
                "Name[pt]": "Albert Vaca Cintora",
                "Name[pt_BR]": "Albert Vaca Cintora",
                "Name[ru]": "Albert Vaca Cintora",
                "Name[sl]": "Albert Vaca Cintora",
                "Name[sv]": "Albert Vaca Cintora",
                "Name[tr]": "Albert Vaca Cintora",
                "Name[uk]": "Albert Vaca Cintora",
                "Name[x-test]": "xxAlbert Vaca Cintoraxx",
                "Name[zh_CN]": "Albert Vaca Cintora",
                "Name[zh_TW]": "Albert Vaca Cintora"
            }
        ],
        "Description": "Send and receive pings",
        "Description[ar]": "أرسل الوخزات واستقبلها",
        "Description[az]": "Siqnalları mübadilə etmək",
        "Description[bg]": "Изпращане и получаване на пинг",
        "Description[ca@valencia]": "Envia i rep pings",
        "Description[ca]": "Envia i rep pings",
        "Description[cs]": "Posílat a přijímat ping",
        "Description[da]": "Send og modtag ping",
        "Description[de]": "Senden und Empfangen von Pings",
        "Description[el]": "Αποστολή και λήψη pings",
        "Description[en_GB]": "Send and receive pings",
        "Description[eo]": "Sendi kaj ricevi ping-ojn",
        "Description[es]": "Enviar y recibir pings",
        "Description[et]": "Pingide saatmine ja vastuvõtmine",
        "Description[eu]": "Bidali eta jaso pingak",
        "Description[fi]": "Lähetä ja vastaanota tiedustelupaketteja",
        "Description[fr]": "Envoie et reçoit des commandes « Ping »",
        "Description[gl]": "Enviar e recibir pings.",
        "Description[he]": "שליחה וקבלה של פינגים",
        "Description[hu]": "Pingek küldése és fogadása",
        "Description[ia]": "Invia e recipe pings",
        "Description[id]": "Kirim dan terima ping",
        "Description[is]": "Senda og taka við ping-merkjum",
        "Description[it]": "Invia e ricevi ping",
        "Description[ja]": "Ping を送受信",
        "Description[ka]": "პინგების მიღების და გაგზავნა",
        "Description[ko]": "핑 보내고 받기",
        "Description[lt]": "Siųsti ir gauti ryšio patikrinimus",
        "Description[nl]": "Pings verzenden en ontvangen",
        "Description[nn]": "Send og ta imot pingsignal",
        "Description[pl]": "Odbiera i wysyła pingi między urządzeniami",
        "Description[pt]": "Enviar e receber contactos",
        "Description[pt_BR]": "Envia e recebe pings",
        "Description[ro]": "Trimite și primește ping-uri",
        "Description[ru]": "Отправка и получение тестовых запросов сети",
        "Description[sk]": "Odosielanie a prijímanie signálov ping",
        "Description[sl]": "Pošiljaj in prejemaj pinge",
        "Description[sr@ijekavian]": "Шаље и прима пингове",
        "Description[sr@ijekavianlatin]": "Šalje i prima pingove",
        "Description[sr@latin]": "Šalje i prima pingove",
        "Description[sr]": "Шаље и прима пингове",
        "Description[sv]": "Skicka och ta emot ping",
        "Description[tr]": "Ping gönder ve al",
        "Description[uk]": "Надсилання і отримання сигналів підтримання зв’язку",
        "Description[x-test]": "xxSend and receive pingsxx",
        "Description[zh_CN]": "发送和接受ping",
        "Description[zh_TW]": "傳送與接收 Ping 回應封包",
        "EnabledByDefault": true,
        "Icon": "dialog-ok",
        "License": "GPL",
        "Name": "Ping",
        "Name[ar]": "وخزة",
        "Name[az]": "Dümsükləmək",
        "Name[bg]": "Сигнализиране",
        "Name[ca@valencia]": "Ping",
        "Name[ca]": "Ping",
        "Name[cs]": "Ping",
        "Name[da]": "Ping",
        "Name[de]": "Ping",
        "Name[el]": "Ping",
        "Name[en_GB]": "Ping",
        "Name[eo]": "Ping",
        "Name[es]": "Ping",
        "Name[et]": "Ping",
        "Name[eu]": "Ping",
        "Name[fi]": "Tiedustelupaketti",
        "Name[fr]": "Commande « Ping »",
        "Name[gl]": "Ping",
        "Name[he]": "פינג",
        "Name[hu]": "Ping",
        "Name[ia]": "Ping",
        "Name[id]": "Ping",
        "Name[is]": "Ping-skipun",
        "Name[it]": "Ping",
        "Name[ja]": "Ping",
        "Name[ka]": "პინგი",
        "Name[ko]": "핑",
        "Name[lt]": "Ryšio tikrinimas",
        "Name[nl]": "Ping",
        "Name[nn]": "Ping",
        "Name[pl]": "Wysyłanie pingów",
        "Name[pt]": "Contacto",
        "Name[pt_BR]": "Ping",
        "Name[ro]": "Ping",
        "Name[ru]": "Проверка сетевой связи",
        "Name[sk]": "Ping",
        "Name[sl]": "Ping",
        "Name[sr@ijekavian]": "Пинг",
        "Name[sr@ijekavianlatin]": "Ping",
        "Name[sr@latin]": "Ping",
        "Name[sr]": "Пинг",
        "Name[sv]": "Pinga",
        "Name[tg]": "Садо додан",
        "Name[tr]": "Ping",
        "Name[uk]": "Луна-імпульс",
        "Name[x-test]": "xxPingxx",
        "Name[zh_CN]": "Ping",
        "Name[zh_TW]": "Ping 回應封包"
    },
    "X-KdeConnect-OutgoingPacketType": [
        "kdeconnect.ping"
    ],
    "X-KdeConnect-SupportedPacketType": [
        "kdeconnect.ping"
    ]
}
