{
    "KPlugin": {
        "Authors": [
            {
                "Email": "holger.k@elberer.de",
                "Name": "Holger Kaelberer",
                "Name[ar]": "هولجر كيلبرر",
                "Name[az]": "Holger Kaelberer",
                "Name[bg]": "Holger Kaelberer",
                "Name[ca@valencia]": "Holger Kaelberer",
                "Name[ca]": "Holger Kaelberer",
                "Name[cs]": "Holger Kaelberer",
                "Name[da]": "Holger Kaelberer",
                "Name[de]": "Holger Kaelberer",
                "Name[el]": "Holger Kaelberer",
                "Name[en_GB]": "Holger Kaelberer",
                "Name[eo]": "Holger Kaelberer",
                "Name[es]": "Holger Kaelberer",
                "Name[et]": "Holger Kaelberer",
                "Name[eu]": "Holger Kaelberer",
                "Name[fi]": "Holger Kaelberer",
                "Name[fr]": "Holger Kaelberer",
                "Name[gl]": "Holger Kaelberer",
                "Name[he]": "הולגר קאלברר",
                "Name[hu]": "Holger Kaelberer",
                "Name[ia]": "Holger Kaelberer",
                "Name[id]": "Holger Kaelberer",
                "Name[ie]": "Holger Kaelberer",
                "Name[is]": "Holger Kaelberer",
                "Name[it]": "Holger Kaelberer",
                "Name[ja]": "Holger Kaelberer",
                "Name[ka]": "Holger Kaelberer",
                "Name[ko]": "Holger Kaelberer",
                "Name[lt]": "Holger Kaelberer",
                "Name[nl]": "Holger Kaelberer",
                "Name[nn]": "Holger Kaelberer",
                "Name[pl]": "Holger Kaelberer",
                "Name[pt]": "Holger Kaelberer",
                "Name[pt_BR]": "Holger Kaelberer",
                "Name[ro]": "Holger Kaelberer",
                "Name[ru]": "Holger Kaelberer",
                "Name[sk]": "Holger Kaelberer",
                "Name[sl]": "Holger Kaelberer",
                "Name[sr@ijekavian]": "Холгер Келберер",
                "Name[sr@ijekavianlatin]": "Holger Kelberer",
                "Name[sr@latin]": "Holger Kelberer",
                "Name[sr]": "Холгер Келберер",
                "Name[sv]": "Holger Kaelberer",
                "Name[tr]": "Holger Kaelberer",
                "Name[uk]": "Holger Kaelberer",
                "Name[x-test]": "xxHolger Kaelbererxx",
                "Name[zh_CN]": "Holger Kaelberer",
                "Name[zh_TW]": "Holger Kaelberer"
            }
        ],
        "Description": "Broadcast this computer's notifications, so they can be shown on other devices.",
        "Description[ar]": "بُثّ إخطارات هذا الحاسوب، لتظهر على الأجهزة الأخرى.",
        "Description[az]": "Bu kompyuterin bildirişlərini yaymaq, belə ki, onlar başqa cihazlarda göstəriləcək.",
        "Description[bg]": "Излъчване на известията на този компютър, така че да се показват на други устройства.",
        "Description[ca@valencia]": "Fa difusió de les notificacions d'este ordinador, de manera que es poden mostrar en altres dispositius.",
        "Description[ca]": "Fa difusió de les notificacions d'aquest ordinador, de manera que es poden mostrar en altres dispositius.",
        "Description[cs]": "Posílat upozornění tohoto počítače, takže mohou být zobrazena na jiných zařízeních.",
        "Description[da]": "Udsend denne computers bekendtgørelser, så de kan vises på andre enheder.",
        "Description[de]": "Die Benachrichtigungen dieses Computers werden verteilt, um Sie auf anderen Geräten anzeigen zu können.",
        "Description[el]": "Μεταδώστε την ειδοποίηση αυτού του υπολογιστή, ώστε να εμφανιστεί σε άλλες συσκευές.",
        "Description[en_GB]": "Broadcast this computer's notifications, so they can be shown on other devices.",
        "Description[eo]": "Dissendi la sciigojn de ĉi tiu komputilo, por ke ili estu montrataj en aliaj aparatoj.",
        "Description[es]": "Emitir las notificaciones de este equipo, de manera que se muestren en otros dispositivos.",
        "Description[et]": "Arvuti märguannete levitamine, et neid oleks näha ka teistes seadmetes",
        "Description[eu]": "Hedatu ordenagailu honen jakinarazpenak, beste gailuetan erakutsi ahal izateko",
        "Description[fi]": "Lähetä tämän tietokoneen ilmoitukset, jotta ne voidaan näyttää muilla laitteilla.",
        "Description[fr]": "Diffuser les notifications de cet ordinateur pour qu'elles puissent être vues par d'autres périphériques.",
        "Description[gl]": "Emitir as notificacións deste computador para que se amosen noutros dispositivos.",
        "Description[he]": "שידור התראות המחשב הזה, כך שהן תופענה במכשירים אחרים.",
        "Description[ia]": "Diffunde le notificationes de iste computator, assi que illos pote esser monstrate sur altere dispositivos.",
        "Description[it]": "Trasmetti le notifiche di questo computer, affinché possano essere mostrate su altri dispositivi.",
        "Description[ja]": "他のデバイスから見られるようにこのコンピュータの通知をブロードキャストします。",
        "Description[ka]": "ამ კომპიუტერის გაფრთხილებების გადაცემა მათი სხვა მოწყობილობაზე საჩვენებლად.",
        "Description[ko]": "이 컴퓨터의 알림을 다른 장치에도 표시합니다.",
        "Description[nl]": "De meldingen van deze computer rondsturen, zodat ze op andere apparaten getoond kunnen worden.",
        "Description[nn]": "Vidaresend varslingar frå datamaskina til andre einingar",
        "Description[pl]": "Rozgłaszaj powiadomienia tego komputera, tak aby można je było wyświetlać na innych urządzeniach.",
        "Description[pt_BR]": "Transmita as notificações deste computador para que possam ser exibidas em outros dispositivos.",
        "Description[ru]": "Трансляция уведомления с этого компьютера, чтобы они могли быть видны на других устройствах",
        "Description[sk]": "Vysielať upozornenia tohto počítača, aby sa zobrazili na druhom zariadení.",
        "Description[sl]": "Oddaj obvestila tega računalnika, da jih je mogoče prikazati na drugih napravah.",
        "Description[sv]": "Sänd ut datorns underrättelser så att de kan visas på andra enheter.",
        "Description[tr]": "Bu bilgisayarın bildirimlerini yayınla, böylece diğer aygıtlarda gösterilebilirler.",
        "Description[uk]": "Транслювати сповіщення з цього комп’ютера так, щоб їх було показано на інших пристроях.",
        "Description[x-test]": "xxBroadcast this computer's notifications, so they can be shown on other devices.xx",
        "Description[zh_CN]": "广播此电脑的通知，以便在其他设备上显示。",
        "Description[zh_TW]": "廣播這台電腦的通知，讓其他裝置能夠顯示它們。",
        "EnabledByDefault": false,
        "Icon": "preferences-desktop-notification",
        "License": "GPL",
        "Name": "Send notifications",
        "Name[ar]": "أرسل إخطارات",
        "Name[az]": "Bildirişləri göndərin",
        "Name[bg]": "Изпращане на известие",
        "Name[ca@valencia]": "Envia les notificacions",
        "Name[ca]": "Envia notificacions",
        "Name[cs]": "Posílat oznamování",
        "Name[da]": "Send bekendtgørelser",
        "Name[de]": "Benachrichtigungen senden",
        "Name[el]": "Αποστολή ειδοποιήσεων",
        "Name[en_GB]": "Send notifications",
        "Name[eo]": "Sendi sciigojn",
        "Name[es]": "Enviar notificaciones",
        "Name[et]": "Märguannete saatmine",
        "Name[eu]": "Bidali jakinarazpenak",
        "Name[fi]": "Lähetä ilmoituksia",
        "Name[fr]": "Envoyer les notifications",
        "Name[gl]": "Enviar notificacións",
        "Name[he]": "שליחת התראות",
        "Name[ia]": "Invia notificationes",
        "Name[it]": "Invia notifiche",
        "Name[ja]": "通知の送信",
        "Name[ka]": "შეტყობინების გაგზავნა",
        "Name[ko]": "알림 보내기",
        "Name[nl]": "Stuur meldingen",
        "Name[nn]": "Send varslingar",
        "Name[pl]": "Wysyłaj powiadomienia",
        "Name[pt_BR]": "Enviar notificações",
        "Name[ru]": "Отправка уведомлений",
        "Name[sk]": "Posielať upozornenia",
        "Name[sl]": "Pošiljaj obvestila",
        "Name[sv]": "Skicka underrättelser",
        "Name[tr]": "Bildirim gönder",
        "Name[uk]": "Надіслати сповіщення",
        "Name[x-test]": "xxSend notificationsxx",
        "Name[zh_CN]": "发送通知",
        "Name[zh_TW]": "傳送通知"
    },
    "X-KDE-ConfigModule": "kdeconnect/kcms/kdeconnect_sendnotifications_config",
    "X-KdeConnect-OutgoingPacketType": [
        "kdeconnect.notification"
    ],
    "X-KdeConnect-SupportedPacketType": [
        "kdeconnect.notification.request"
    ]
}
